{
  "version": 1,
  "license": "CC-BY-SA-3.0",
  "copyright": "Taken form tg station https://github.com/tgstation/tgstation/blob/b755b9c247d68d2b68fe5c827b93dde60646465e/icons/effects/cult/halo.dmi and modified by blazeba(437213945200377856)",
  "size": { "x": 32, "y": 32 },
  "states": [
    {
	  "name": "halo",
      "delays": [[
          0.1, 0.1, 0.1, 0.1, 0.1, 0.1, 0.1, 0.1,
          0.1, 0.1, 0.1, 0.1, 0.1, 0.1, 0.1, 0.1,
          0.1, 0.1, 0.1, 0.1, 0.1, 0.1, 0.1, 0.1,
          0.1, 0.1, 0.1, 0.1, 0.1, 0.1, 0.1, 0.1,
          0.1, 0.1, 0.1, 0.1, 0.1, 0.1, 0.1, 0.1,
          0.1, 0.1, 0.1, 0.1, 0.1, 0.1, 0.1, 0.1,
          0.1, 0.1, 0.1, 0.1, 0.1, 0.1, 0.1, 0.1,
          0.1, 0.1, 0.1, 0.1, 0.1, 0.1, 0.1, 0.1,
          0.1, 0.1
        ]
      ]
    }
  ]
}
