{
  "version": 1,
  "license": "CC-BY-SA-3.0",
  "copyright": "Made by Belay#7441",
  "size": {
    "x": 32,
    "y": 32
  },
  "states": [
    {
      "name": "icon"
    },
    {
      "name": "icon-unshaded"
    },
    {
      "name": "icon-flash"
    },
    {
      "name": "light-overlay"
    },
    {
      "name": "equipped-head",
      "directions": 4
    },
    {
      "name": "equipped-head-unshaded",
      "directions": 4
    },
    {
      "name": "inhand-left",
      "directions": 4
    },
    {
      "name": "inhand-left-unshaded",
      "directions": 4
    },
    {
      "name": "inhand-right",
      "directions": 4
    },
    {
      "name": "inhand-right-unshaded",
      "directions": 4
    }
  ]
}